.................
----------------------------------------------------------------------
Ran 17 tests in 1.414s

OK
Name             Stmts   Miss Branch BrPart  Cover   Missing
------------------------------------------------------------
Collatz.py          36      0     18      0   100%
TestCollatz.py      76      0      0      0   100%
------------------------------------------------------------
TOTAL              112      0     18      0   100%
